<svg xmlns="http://www.w3.org/2000/svg" width="29.812" height="30.591" viewBox="0 0 29.812 30.591">
  <path id="Path_11888" data-name="Path 11888" d="M12.527,6.562,2.334,16A4.1,4.1,0,0,0,1,19.035V27.42a4.21,4.21,0,0,0,4.259,4.172h19.52a1.738,1.738,0,1,0,0-3.476H16.616V26.724h11a1.739,1.739,0,1,0,0-3.476h-11V21.858H29.038a1.738,1.738,0,1,0,0-3.476H16.616v-1.39H26.2a1.738,1.738,0,1,0,0-3.476H12.158c.909-1.543,2.1-3.587,2.115-3.629a1.434,1.434,0,0,0,.2-.737,1.463,1.463,0,0,0-.369-.973c-.014-.056-1.576-1.613-1.576-1.613ZM19.455,8.3a1.043,1.043,0,1,1-1.065,1.043A1.062,1.062,0,0,1,19.455,8.3m0-2.086a3.129,3.129,0,1,0,3.194,3.129,3.167,3.167,0,0,0-3.194-3.129Zm8.163,1.043a.7.7,0,1,1-.71.7.7.7,0,0,1,.71-.7m0-2.086a2.782,2.782,0,1,0,2.839,2.781,2.819,2.819,0,0,0-2.839-2.781ZM23,1a2.105,2.105,0,0,0-2.129,2.086,2.13,2.13,0,0,0,4.259,0A2.105,2.105,0,0,0,23,1Z" transform="translate(-1 -1)" fill="#fed501"/>
</svg>
