<svg id="medication_black_24dp" xmlns="http://www.w3.org/2000/svg" width="35.757" height="35.757" viewBox="0 0 35.757 35.757">
  <g id="Group_11997" data-name="Group 11997">
    <path id="Path_11886" data-name="Path 11886" d="M0,0H35.757V35.757H0Z" fill="none"/>
  </g>
  <g id="Group_11999" data-name="Group 11999" transform="translate(7.449 4.47)">
    <g id="Group_11998" data-name="Group 11998">
      <rect id="Rectangle_1129" data-name="Rectangle 1129" width="18" height="3" transform="translate(1.551 -0.47)" fill="#fed501"/>
      <path id="Path_11887" data-name="Path 11887" d="M22.878,6H7.98A2.988,2.988,0,0,0,5,8.98V25.368a2.988,2.988,0,0,0,2.98,2.98h14.9a2.988,2.988,0,0,0,2.98-2.98V8.98A2.988,2.988,0,0,0,22.878,6Zm-1.49,13.409H17.664v3.725h-4.47V19.409H9.47v-4.47h3.725V11.215h4.47v3.725h3.725Z" transform="translate(-5 -1.53)" fill="#fed501"/>
    </g>
  </g>
</svg>
